<?xml version="1.0" encoding="UTF-8" standalone="no"?>
<!-- Created with Inkscape (http://www.inkscape.org/) -->

<svg
   width="224.41194mm"
   height="224.41194mm"
   viewBox="0 0 224.41195 224.41194"
   version="1.1"
   id="svg980"
   inkscape:version="1.1.2 (b8e25be833, 2022-02-05)"
   sodipodi:docname="bookmark-hex-sticker.svg"
   inkscape:export-filename="C:\pC\git\R\bookmark\img\bookmark-hex-sticker.png"
   inkscape:export-xdpi="56.59"
   inkscape:export-ydpi="56.59"
   xmlns:inkscape="http://www.inkscape.org/namespaces/inkscape"
   xmlns:sodipodi="http://sodipodi.sourceforge.net/DTD/sodipodi-0.dtd"
   xmlns:xlink="http://www.w3.org/1999/xlink"
   xmlns="http://www.w3.org/2000/svg"
   xmlns:svg="http://www.w3.org/2000/svg">
  <sodipodi:namedview
     id="namedview982"
     pagecolor="#ffffff"
     bordercolor="#666666"
     borderopacity="1.0"
     inkscape:pageshadow="2"
     inkscape:pageopacity="0.0"
     inkscape:pagecheckerboard="0"
     inkscape:document-units="mm"
     showgrid="false"
     inkscape:snap-global="true"
     inkscape:snap-bbox="true"
     inkscape:snap-midpoints="true"
     inkscape:bbox-paths="true"
     inkscape:snap-bbox-edge-midpoints="true"
     inkscape:snap-bbox-midpoints="true"
     inkscape:object-paths="true"
     inkscape:snap-center="true"
     inkscape:snap-object-midpoints="true"
     inkscape:bbox-nodes="true"
     inkscape:snap-intersection-paths="true"
     inkscape:snap-smooth-nodes="true"
     inkscape:zoom="0.35688512"
     inkscape:cx="402.09017"
     inkscape:cy="525.37915"
     inkscape:window-width="1920"
     inkscape:window-height="1134"
     inkscape:window-x="-8"
     inkscape:window-y="-8"
     inkscape:window-maximized="1"
     inkscape:current-layer="layer11"
     fit-margin-top="0"
     fit-margin-left="0"
     fit-margin-right="0"
     fit-margin-bottom="0" />
  <defs
     id="defs977">
    <linearGradient
       inkscape:collect="always"
       id="Background">
      <stop
         style="stop-color:#faeecc;stop-opacity:1"
         offset="0"
         id="stop46541" />
      <stop
         style="stop-color:#f9ecb1;stop-opacity:1"
         offset="1"
         id="stop46539" />
    </linearGradient>
    <linearGradient
       inkscape:collect="always"
       xlink:href="#Background"
       id="linearGradient46545"
       x1="40.995403"
       y1="36.793915"
       x2="134.92389"
       y2="199.48692"
       gradientUnits="userSpaceOnUse" />
  </defs>
  <g
     inkscape:label="Background"
     inkscape:groupmode="layer"
     id="layer1"
     style="display:none"
     transform="translate(24.250887,-5.9407268)"
     sodipodi:insensitive="true">
    <circle
       style="color:#000000;overflow:visible;opacity:1;fill:#e6e6e6;stroke:#552200;stroke-width:0.0761086;stroke-linecap:round;stroke-linejoin:round;stop-color:#000000"
       id="path1385"
       cx="87.698158"
       cy="135.79799"
       r="75.774696" />
    <rect
       style="color:#000000;overflow:visible;fill:#ffffff;stroke-width:1.21104;stroke-linecap:square;stop-color:#000000"
       id="rect1166"
       width="224.41194"
       height="224.41194"
       x="-24.250887"
       y="5.9407268" />
  </g>
  <g
     inkscape:groupmode="layer"
     id="layer11"
     inkscape:label="Hex background"
     transform="translate(14.89742,-0.15269366)"
     style="display:inline">
    <path
       inkscape:connector-curvature="0"
       id="path4879-4"
       d="M 87.953342,9.6826099 -5.9625388,63.905223 -5.9805759,172.37404 87.958893,226.6108 181.8889,172.36304 181.8909,63.91779 Z"
       style="color:#000000;clip-rule:nonzero;display:inline;overflow:visible;visibility:visible;isolation:auto;mix-blend-mode:normal;color-interpolation:sRGB;color-interpolation-filters:linearRGB;solid-color:#000000;solid-opacity:1;fill:url(#linearGradient46545);fill-opacity:1;fill-rule:nonzero;stroke:none;stroke-width:3.04287;stroke-linecap:square;stroke-linejoin:miter;stroke-miterlimit:4;stroke-dasharray:none;stroke-dashoffset:0;stroke-opacity:1;color-rendering:auto;image-rendering:auto;shape-rendering:auto;text-rendering:auto;enable-background:accumulate"
       transform="translate(9.3534672,-5.7880332)" />
  </g>
  <g
     inkscape:groupmode="layer"
     id="layer5"
     inkscape:label="Book cover"
     style="display:inline"
     sodipodi:insensitive="true">
    <path
       style="display:inline;fill:#3e3221;fill-opacity:1;stroke:#3e3221;stroke-width:0.264583px;stroke-linecap:butt;stroke-linejoin:miter;stroke-opacity:1"
       d="m 46.950135,64.232538 v 60.468782 h 44.383171 v 1.11615 h 12.080624 v -1.11615 h 44.12055 V 64.232538 Z"
       id="path5427"
       sodipodi:nodetypes="ccccccccc"
       transform="translate(14.89742,-0.15269366)" />
  </g>
  <g
     inkscape:groupmode="layer"
     id="layer8"
     inkscape:label="Book pages"
     style="display:inline"
     sodipodi:insensitive="true">
    <path
       id="path18032"
       style="display:inline;fill:#ffffff;stroke:none;stroke-width:1;stroke-linecap:butt;stroke-linejoin:bevel;stroke-miterlimit:4;stroke-dasharray:none;stroke-opacity:1"
       d="m 90.464302,118.71924 c 5.786416,0.18325 11.686628,1.43319 16.685598,4.45063 1.66328,-0.87541 3.32655,-1.75082 4.98983,-2.62623 V 62.898045 C 106.35668,57.119716 97.676046,55.114417 89.721049,55.664809 83.035645,56.403401 76.521192,58.270086 70.120157,60.27182 l -4.858512,4.989825 0.13131,57.382975 c 8.232588,-1.91168 16.57363,-3.92672 25.071347,-3.92538 z"
       sodipodi:nodetypes="scccscccs" />
    <path
       id="path22115"
       style="display:inline;fill:#ffffff;stroke:none;stroke-width:1;stroke-linecap:butt;stroke-linejoin:bevel;stroke-miterlimit:4;stroke-dasharray:none;stroke-opacity:1"
       d="m 133.81519,118.71924 c -5.78644,0.18325 -11.68665,1.43319 -16.68562,4.45063 -1.66328,-0.87541 -3.32656,-1.75082 -4.98984,-2.62623 V 62.898045 c 5.78306,-5.778329 14.4637,-7.783628 22.41871,-7.233236 6.68545,0.738592 13.19993,2.605277 19.60097,4.607011 l 4.85851,4.989825 -0.13131,57.382975 c -8.23259,-1.91168 -16.57366,-3.92672 -25.07142,-3.92538 z"
       sodipodi:nodetypes="scccscccs" />
  </g>
  <g
     inkscape:groupmode="layer"
     id="layer6"
     inkscape:label="Book pages border"
     style="display:inline"
     sodipodi:insensitive="true">
    <path
       id="path9587"
       style="display:inline;fill:none;stroke:#3e3221;stroke-width:1;stroke-linecap:butt;stroke-linejoin:bevel;stroke-miterlimit:4;stroke-dasharray:none;stroke-opacity:1"
       d="m 70.120157,60.27182 0.722212,56.92339 m -5.580724,-51.933565 0.13131,57.382975 5.449414,-5.44941 c 0,0 14.463679,-4.75966 24.883466,-3.87367 10.526155,0.89502 16.413895,7.2221 16.413895,7.2221 V 62.898045 c 0,0 -5.94531,-7.095726 -19.696675,-7.353427 -7.604644,-0.142511 -22.322898,4.727202 -22.322898,4.727202 z m 0.13131,57.382975 c 0,0 15.474487,-3.94911 24.029942,-3.93932 11.258563,0.0129 17.727003,4.46457 17.727003,4.46457 l 4.98983,-2.62623"
       sodipodi:nodetypes="cccccsccscccscc" />
    <path
       id="path22199"
       style="display:inline;fill:none;stroke:#3e3221;stroke-width:1;stroke-linecap:butt;stroke-linejoin:bevel;stroke-miterlimit:4;stroke-dasharray:none;stroke-opacity:1"
       d="m 154.15933,60.27182 -0.72221,56.92339 m 5.58072,-51.933565 -0.13131,57.382975 -5.44941,-5.44941 c 0,0 -14.46369,-4.75966 -24.88348,-3.87367 -10.52616,0.89502 -16.41391,7.2221 -16.41391,7.2221 V 62.898045 c 0,0 5.94532,-7.095726 19.69669,-7.353427 7.60465,-0.142511 22.32291,4.727202 22.32291,4.727202 z m -0.13131,57.382975 c 0,0 -15.47449,-3.94911 -24.02995,-3.93932 -11.25857,0.0129 -17.72701,4.46457 -17.72701,4.46457 l -4.98984,-2.62623"
       sodipodi:nodetypes="cccccsccscccscc" />
  </g>
  <g
     inkscape:groupmode="layer"
     id="layer9"
     inkscape:label="Written lines"
     style="display:inline"
     sodipodi:insensitive="true">
    <path
       style="display:inline;fill:none;stroke:#3e3221;stroke-width:1;stroke-linecap:butt;stroke-linejoin:miter;stroke-miterlimit:4;stroke-dasharray:none;stroke-opacity:1"
       d="m 60.351468,66.346679 c 12.31018,-2.214054 24.564417,-4.319332 32.527536,1.919232"
       id="path12164"
       sodipodi:nodetypes="cc"
       transform="translate(14.89742,-0.15269366)" />
    <path
       style="display:inline;fill:none;stroke:#3e3221;stroke-width:1;stroke-linecap:butt;stroke-linejoin:miter;stroke-miterlimit:4;stroke-dasharray:none;stroke-opacity:1"
       d="M 60.351468,73.225854 C 72.661648,71.0118 84.915885,68.906522 92.879004,75.145086"
       id="path15790"
       sodipodi:nodetypes="cc"
       transform="translate(14.89742,-0.15269366)" />
    <path
       style="display:inline;fill:none;stroke:#3e3221;stroke-width:1;stroke-linecap:butt;stroke-linejoin:miter;stroke-miterlimit:4;stroke-dasharray:none;stroke-opacity:1"
       d="m 60.351468,80.105029 c 12.31018,-2.214054 24.564417,-4.319332 32.527536,1.919232"
       id="path15792"
       sodipodi:nodetypes="cc"
       transform="translate(14.89742,-0.15269366)" />
    <path
       style="display:inline;fill:none;stroke:#3e3221;stroke-width:1;stroke-linecap:butt;stroke-linejoin:miter;stroke-miterlimit:4;stroke-dasharray:none;stroke-opacity:1"
       d="m 60.351468,86.984203 c 12.31018,-2.214054 24.564417,-4.319332 32.527536,1.919232"
       id="path15794"
       sodipodi:nodetypes="cc"
       transform="translate(14.89742,-0.15269366)" />
    <path
       style="display:inline;fill:none;stroke:#3e3221;stroke-width:1;stroke-linecap:butt;stroke-linejoin:miter;stroke-miterlimit:4;stroke-dasharray:none;stroke-opacity:1"
       d="m 60.351468,93.863378 c 5.94856,-1.069881 11.884058,-2.114363 17.328618,-2.204245"
       id="path15796"
       sodipodi:nodetypes="cc"
       transform="translate(14.89742,-0.15269366)" />
  </g>
  <g
     inkscape:groupmode="layer"
     id="layer7"
     inkscape:label="Marker"
     style="display:inline"
     sodipodi:insensitive="true">
    <path
       style="display:inline;fill:none;stroke:#00ff00;stroke-width:3;stroke-linecap:butt;stroke-linejoin:miter;stroke-miterlimit:4;stroke-dasharray:none;stroke-opacity:1"
       d="m 60.351468,107.62175 c 9.693915,-1.74352 19.35314,-3.41958 26.909553,-1.00682"
       id="path17360"
       sodipodi:nodetypes="cc"
       transform="translate(14.89742,-0.15269366)" />
    <g
       id="g17358"
       transform="matrix(0.27103505,0.27103505,-0.27103505,0.27103505,69.886171,-23.639228)">
      <path
         style="fill:#808080;stroke:#000000;stroke-width:0.264583px;stroke-linecap:butt;stroke-linejoin:miter;stroke-opacity:1"
         d="m 276.53041,162.91569 26.8746,-0.18534 0.18534,-12.60326 6.11626,-12.23258 h -41.70195 l 6.85765,8.89642 z"
         id="path16918" />
      <path
         style="fill:#666666;stroke:#000000;stroke-width:0.264583px;stroke-linecap:butt;stroke-linejoin:miter;stroke-opacity:1"
         d="m 261.51768,137.70917 h 56.52934 l -0.37068,-17.79284 -55.97331,-0.55603 z"
         id="path16719" />
      <path
         style="fill:#00ff00;stroke:#000000;stroke-width:0.264583px;stroke-linecap:butt;stroke-linejoin:miter;stroke-opacity:1"
         d="m 255.58674,119.54565 67.27916,0.18534 0.18535,-127.1446734 -6.67232,-8.8964206 h -52.4518 l -8.15505,7.9697101 z"
         id="path16458" />
      <path
         style="fill:#00ff00;stroke:#000000;stroke-width:0.264583px;stroke-linecap:butt;stroke-linejoin:miter;stroke-opacity:1"
         d="m 282.64667,187.56619 15.75409,-7.043 -0.55602,-16.68079 -17.97818,-0.55602 z"
         id="path17070" />
      <g
         id="g16267"
         transform="matrix(0.41341064,0,0,0.41341064,183.6706,-20.57597)">
        <g
           id="g16265">
          <path
             d="M 309.793,0 H 202.209 c -20.387,0 -36.973,16.586 -36.973,36.973 v 302.459 c 0,4.95 4.013,8.963 8.963,8.963 h 3.463 v 34.528 c 0,4.95 4.013,8.963 8.963,8.963 14.471,0 26.243,11.773 26.243,26.243 v 26.923 c 0,4.95 4.013,8.963 8.963,8.963 h 3.463 v 49.024 c 0,2.948 1.45,5.707 3.877,7.38 1.518,1.046 3.295,1.582 5.086,1.582 1.076,0 2.157,-0.194 3.19,-0.587 l 43.491,-16.568 c 3.475,-1.324 5.772,-4.657 5.772,-8.376 v -32.456 h 3.462 c 4.951,0 8.963,-4.013 8.963,-8.963 v -26.923 c 0,-14.471 11.773,-26.243 26.244,-26.243 4.951,0 8.963,-4.013 8.963,-8.963 v -34.528 h 3.462 c 4.951,0 8.963,-4.013 8.963,-8.963 V 36.973 C 346.767,16.586 330.181,0 309.793,0 Z m -41.01,480.293 -25.565,9.738 v -36.018 h 25.565 z m 12.426,-62.164 v 17.96 h -50.416 v -17.96 c 0,-9.822 -3.228,-18.901 -8.67,-26.243 h 67.757 c -5.443,7.342 -8.671,16.421 -8.671,26.243 z m -85.623,-44.17 v -25.565 h 120.829 v 25.565 z M 328.84,330.469 H 183.16 V 36.973 c 0,-10.503 8.544,-19.048 19.048,-19.048 h 107.584 c 10.503,0 19.048,8.544 19.048,19.048 z"
             id="path16263" />
        </g>
      </g>
      <g
         id="g16273"
         transform="matrix(0.41341064,0,0,0.41341064,183.6706,-20.57597)">
        <g
           id="g16271">
          <path
             d="m 307.928,68.227 c -4.951,0 -8.963,4.013 -8.963,8.963 v 232.366 c 0,4.95 4.013,8.963 8.963,8.963 4.951,0 8.963,-4.013 8.963,-8.963 V 77.19 c 0,-4.95 -4.012,-8.963 -8.963,-8.963 z"
             id="path16269" />
        </g>
      </g>
      <g
         id="g16279"
         transform="matrix(0.41341064,0,0,0.41341064,183.6706,-20.57597)">
        <g
           id="g16277">
          <path
             d="m 316.713,37.093 c -0.108,-0.574 -0.287,-1.147 -0.514,-1.685 -0.216,-0.538 -0.49,-1.064 -0.814,-1.542 -0.333,-0.49 -0.705,-0.956 -1.122,-1.362 -2.079,-2.079 -5.174,-3.035 -8.092,-2.45 -0.562,0.108 -1.134,0.287 -1.672,0.514 -0.538,0.215 -1.065,0.502 -1.542,0.825 -0.502,0.323 -0.956,0.693 -1.364,1.111 -0.418,0.406 -0.788,0.872 -1.122,1.362 -0.324,0.478 -0.598,1.004 -0.825,1.542 -0.215,0.538 -0.394,1.111 -0.502,1.685 -0.12,0.574 -0.178,1.159 -0.178,1.745 0,2.366 0.956,4.673 2.628,6.334 0.406,0.417 0.86,0.788 1.362,1.123 0.477,0.323 1.004,0.598 1.542,0.825 0.538,0.215 1.111,0.394 1.672,0.502 0.586,0.12 1.171,0.179 1.758,0.179 2.354,0 4.671,-0.956 6.334,-2.629 1.672,-1.661 2.629,-3.968 2.629,-6.334 10e-4,-0.586 -0.06,-1.172 -0.178,-1.745 z"
             id="path16275" />
        </g>
      </g>
    </g>
  </g>
  <g
     inkscape:groupmode="layer"
     id="layer4"
     inkscape:label="Package title"
     style="display:inline">
    <text
       xml:space="preserve"
       style="font-style:normal;font-variant:normal;font-weight:normal;font-stretch:normal;font-size:31.6961px;line-height:1.25;font-family:'Bauhaus 93';-inkscape-font-specification:'Bauhaus 93, ';fill:#cccccc;fill-opacity:1;stroke:none;stroke-width:0.3962"
       x="111.24834"
       y="163.32245"
       id="text9996"><tspan
         sodipodi:role="line"
         id="tspan9994"
         style="font-style:normal;font-variant:normal;font-weight:900;font-stretch:normal;font-size:31.6961px;font-family:Nunito;-inkscape-font-specification:'Nunito Heavy';text-align:center;text-anchor:middle;fill:#cccccc;fill-opacity:1;stroke-width:0.3962"
         x="111.24834"
         y="163.32245">bookmark</tspan></text>
    <text
       xml:space="preserve"
       style="font-style:normal;font-variant:normal;font-weight:normal;font-stretch:normal;font-size:31.6961px;line-height:1.25;font-family:'Bauhaus 93';-inkscape-font-specification:'Bauhaus 93, ';fill:#00a800;fill-opacity:1;stroke:none;stroke-width:0.3962"
       x="149.30171"
       y="163.32245"
       id="text28582"><tspan
         sodipodi:role="line"
         id="tspan28580"
         style="font-style:normal;font-variant:normal;font-weight:900;font-stretch:normal;font-size:31.6961px;font-family:Nunito;-inkscape-font-specification:'Nunito Heavy';text-align:center;text-anchor:middle;fill:#00a800;fill-opacity:1;stroke-width:0.3962"
         x="149.30171"
         y="163.32245">mark</tspan></text>
    <text
       xml:space="preserve"
       style="font-style:normal;font-variant:normal;font-weight:normal;font-stretch:normal;font-size:31.6961px;line-height:1.25;font-family:'Bauhaus 93';-inkscape-font-specification:'Bauhaus 93, ';fill:#3e3221;fill-opacity:1;stroke:none;stroke-width:0.3962"
       x="72.431625"
       y="163.32245"
       id="text28586"><tspan
         sodipodi:role="line"
         id="tspan28584"
         style="font-style:normal;font-variant:normal;font-weight:900;font-stretch:normal;font-size:31.6961px;font-family:Nunito;-inkscape-font-specification:'Nunito Heavy';text-align:center;text-anchor:middle;fill:#3e3221;fill-opacity:1;stroke-width:0.3962"
         x="72.431625"
         y="163.32245">book</tspan></text>
    <text
       xml:space="preserve"
       style="font-style:normal;font-variant:normal;font-weight:600;font-stretch:normal;font-size:7.05556px;line-height:1.25;font-family:Nunito;-inkscape-font-specification:'Nunito Semi-Bold';fill:#000000;fill-opacity:1;stroke:none;stroke-width:0.264583"
       x="-8.9285545"
       y="240.69794"
       id="text26504"
       transform="rotate(-30)"><tspan
         sodipodi:role="line"
         id="tspan26502"
         style="font-style:normal;font-variant:normal;font-weight:600;font-stretch:normal;font-size:7.05556px;font-family:Nunito;-inkscape-font-specification:'Nunito Semi-Bold';stroke-width:0.264583"
         x="-8.9285545"
         y="240.69794">bookmark.opens.science</tspan></text>
  </g>
  <g
     inkscape:groupmode="layer"
     id="layer2"
     inkscape:label="Quarto Logo"
     style="display:none"
     sodipodi:insensitive="true">
    <g
       id="g7067"
       transform="matrix(1.6658174,0,0,1.6658174,-91.323547,-179.95141)">
      <path
         id="path978"
         style="display:inline;fill:#75aadb;fill-opacity:1;stroke-width:63.1427"
         d="m 477.33984,637.99805 a 81.251069,81.251069 0 0 0 -74.30859,-75.69922 v 75.69922 z"
         transform="scale(0.26458333)" />
      <path
         id="path1515"
         style="display:inline;fill:#75aadb;fill-opacity:1;stroke-width:63.1427"
         d="m 403.03125,724.01562 a 81.251069,81.251069 0 0 0 74.125,-75.51757 h -74.125 z"
         transform="scale(0.26458333)" />
      <path
         id="path1513"
         style="display:inline;fill:#75aadb;fill-opacity:1;stroke-width:63.1427"
         d="m 315.40625,648.49805 a 81.251069,81.251069 0 0 0 77.125,75.73242 v -75.73242 z"
         transform="scale(0.26458333)" />
      <path
         id="path1511"
         style="display:inline;fill:#75aadb;fill-opacity:1;stroke-width:63.1427"
         d="m 392.53125,562.26367 a 81.251069,81.251069 0 0 0 -77.125,75.73438 h 77.125 z"
         transform="scale(0.26458333)" />
    </g>
  </g>
  <g
     inkscape:groupmode="layer"
     id="layer3"
     inkscape:label="Mastodon logo"
     style="display:none"
     sodipodi:insensitive="true">
    <path
       id="path33983"
       style="display:inline;fill:#563acc;fill-opacity:1;stroke-width:1.02793"
       d="m 547.89844,163.78516 c -30.48972,0.24929 -59.83705,3.55085 -76.92774,11.40039 0,0 -33.89648,15.16462 -33.89648,66.90039 0,0 -0.42573,38.17049 4.72656,64.67187 h 0.002 c 3.27013,16.8233 29.28789,35.23452 59.16993,38.80274 15.58212,1.85927 30.92367,3.56875 47.2832,2.81836 26.75444,-1.22582 47.86523,-6.38672 47.86523,-6.38672 0,2.60453 -0.16123,5.08501 -0.48242,7.40429 -3.47826,26.40366 -26.17988,27.98509 -47.68555,28.72266 -21.70597,0.74264 -41.03515,-5.35156 -41.03515,-5.35156 l -0.89063,19.62304 c 0,0 15.18233,8.15282 42.22852,9.65235 14.91398,0.8197 33.43145,-0.37516 55,-6.08399 46.77857,-12.38139 54.82377,-62.24507 56.05469,-112.83984 0.3753,-15.0219 0.14453,-29.18629 0.14453,-41.0332 0,-51.73577 -33.89844,-66.90039 -33.89844,-66.90039 -17.09197,-7.84954 -46.42044,-11.15112 -76.91016,-11.40039 z m 51.17383,48.89257 a 14.943684,14.943684 0 0 1 1.0664,0.0391 14.943684,14.943684 0 0 1 1.06055,0.11328 14.943684,14.943684 0 0 1 1.05078,0.18945 14.943684,14.943684 0 0 1 1.0332,0.26367 14.943684,14.943684 0 0 1 1.01172,0.33594 14.943684,14.943684 0 0 1 0.98633,0.4082 14.943684,14.943684 0 0 1 0.95313,0.47852 14.943684,14.943684 0 0 1 0.91796,0.54492 14.943684,14.943684 0 0 1 0.87696,0.60742 14.943684,14.943684 0 0 1 0.83008,0.66992 14.943684,14.943684 0 0 1 0.78124,0.72657 14.943684,14.943684 0 0 1 0.72657,0.78125 14.943684,14.943684 0 0 1 0.66992,0.83008 14.943684,14.943684 0 0 1 0.60742,0.87695 14.943684,14.943684 0 0 1 0.54492,0.91601 14.943684,14.943684 0 0 1 0.47657,0.95508 14.943684,14.943684 0 0 1 0.4082,0.98438 14.943684,14.943684 0 0 1 0.33789,1.01367 14.943684,14.943684 0 0 1 0.26367,1.0332 14.943684,14.943684 0 0 1 0.18945,1.04883 14.943684,14.943684 0 0 1 0.11329,1.06055 14.943684,14.943684 0 0 1 0.0391,1.0664 14.943684,14.943684 0 0 1 -0.28711,2.91602 14.943684,14.943684 0 0 1 -0.85156,2.80273 14.943684,14.943684 0 0 1 -1.38086,2.58399 14.943684,14.943684 0 0 1 -1.85743,2.26367 14.943684,14.943684 0 0 1 -2.26562,1.85938 14.943684,14.943684 0 0 1 -2.58398,1.38085 14.943684,14.943684 0 0 1 -2.80274,0.84961 14.943684,14.943684 0 0 1 -2.91601,0.28711 14.943684,14.943684 0 0 1 -2.91407,-0.28711 14.943684,14.943684 0 0 1 -2.80273,-0.84961 14.943684,14.943684 0 0 1 -2.58399,-1.38085 14.943684,14.943684 0 0 1 -2.26562,-1.85938 14.943684,14.943684 0 0 1 -1.85742,-2.26367 14.943684,14.943684 0 0 1 -1.38086,-2.58399 14.943684,14.943684 0 0 1 -0.85156,-2.80273 14.943684,14.943684 0 0 1 -0.28711,-2.91602 14.943684,14.943684 0 0 1 0.28711,-2.91406 14.943684,14.943684 0 0 1 0.85156,-2.80469 14.943684,14.943684 0 0 1 1.38086,-2.58398 14.943684,14.943684 0 0 1 1.85742,-2.26367 14.943684,14.943684 0 0 1 2.26562,-1.85742 14.943684,14.943684 0 0 1 2.58399,-1.38282 14.943684,14.943684 0 0 1 2.80273,-0.84961 14.943684,14.943684 0 0 1 2.91407,-0.28711 z"
       transform="scale(0.26458333)" />
  </g>
  <g
     inkscape:groupmode="layer"
     id="layer10"
     inkscape:label="Hex"
     transform="translate(24.250887,-5.9407268)"
     style="display:inline">
    <path
       style="display:inline;isolation:isolate;fill:#00a800;fill-opacity:1;stroke:none;stroke-width:0.264;stroke-miterlimit:4;stroke-dasharray:none;stroke-opacity:0.572549"
       inkscape:connector-curvature="0"
       id="path1094-2"
       d="m 95.705465,225.87693 73.467545,-42.41326 15.9564,-9.2315 0.002,-18.41151 -0.002,-84.831434 0.002,-8.944958 L 87.957686,5.9407326 80.213,10.416469 5.8245996,53.366898 l -15.0355943,8.694381 -0.010247,17.368364 0.010247,85.874537 -0.0027,8.94499 97.1741007,56.1035 z M -1.6977054,169.64126 -1.6841572,66.375375 87.726617,14.753509 l 89.433153,51.634239 -7e-4,103.242962 v 0 l -89.424108,51.64481 z"
       class="cls-3" />
  </g>
</svg>
